Comparing Emotional Data
…
qual.par

## # A tibble: 204 x 51
##    subj_num     age handedness gender  race_1 race_2 race_3 race_4  race_5
##    <chr>      <int> <chr>      <chr>   <chr>  <chr>  <chr>  <chr>   <chr> 
##  1 5910882ea    24 right      Female  <NA>   <NA>   <NA>   <NA>    White 
##  2 57d0badf2    25 right      Female  <NA>   <NA>   <NA>   <NA>    White 
##  3 5a8e54c9f    25 right      Female  <NA>   <NA>   <NA>   <NA>    White 
##  4 59d6c032e    22 right      Male    <NA>   <NA>   <NA>   <NA>    White 
##  5 5a8b527d5    23 right      Male    <NA>   <NA>   <NA>   <NA>    White 
##  6 5a09f54af    21 right      Male    <NA>   <NA>   <NA>   <NA>    White 
##  7 5845b234f    32 right      Not re <NA>   <NA>   <NA>   <NA>    White 
##  8 5652186a8    26 right      Female  <NA>   <NA>   <NA>   <NA>    White 
##  9 579f1d3bc    35 right      Male    <NA>   <NA>   <NA>   Black/ <NA>  
## 10 5a11cd27f    22 right      Male    <NA>   <NA>   <NA>   <NA>    <NA>  
## # ... with 194 more rows, and 42 more variables: race_6 <chr>,
## #   ethnicity <chr>, edu <chr>, dx <chr>, dx_med <chr>, ses <int>,
## #   race_summary <chr>, nas_i_panas_sf <int>, nas_sns <int>,
## #   nas_bpq <int>, nas_tas20 <int>, nas_ders <int>, nas_total <int>,
## #   i_panas_sf_neg <dbl>, i_panas_sf_pos <dbl>, sns_month <int>,
## #   sns_week <int>, bpq_abandonment <dbl>,
## #   bpq_affective_instability <dbl>, bpq_emptiness <dbl>,
## #   bpq_impulsivity <dbl>, bpq_intense_anger <dbl>,
## #   bpq_quasi_psychotic_states <dbl>, bpq_relationships <dbl>,
…
nrow(students)

## [1] 44

nrow(qual.par)

## [1] 204

students$group <- "Students"
qual.par$group <-"Online participants"

masterdata <- bind_rows(students, qual.par)
masterdata

## # A tibble: 248 x 52
##    subj_num   age handedness gender race_1    race_2 race_3 race_4  race_5
##    <chr>    <int> <chr>      <chr>  <chr>     <chr>  <chr>  <chr>   <chr> 
##  1 s001        19 right      Male   <NA>      <NA>   <NA>   <NA>    White 
##  2 s002        21 right      Female <NA>      <NA>   <NA>   <NA>    White 
##  3 s003        20 left       Female <NA>      <NA>   <NA>   Black/ <NA>  
##  4 s004        18 left       Male   <NA>      <NA>   <NA>   <NA>    White 
##  5 s005        23 right      Female <NA>      <NA>   <NA>   <NA>    White 
##  6 s006        21 right      Male   <NA>      <NA>   <NA>   <NA>    White 
##  7 s007        19 right      Female American <NA>   <NA>   Black/ White 
##  8 s008        18 right      Female <NA>      Asian  <NA>   <NA>    <NA>  
##  9 s010        24 right      Male   <NA>      <NA>   <NA>   <NA>    White 
## 10 s011        19 right      Male   <NA>      Asian  <NA>   <NA>    <NA>  
## # ... with 238 more rows, and 43 more variables: race_6 <chr>,
## #   ethnicity <chr>, edu <chr>, dx <chr>, dx_med <chr>, ses <int>,
## #   race_summary <chr>, nas_i_panas_sf <int>, nas_sns <int>,
## #   nas_bpq <int>, nas_tas20 <int>, nas_ders <int>, nas_total <int>,
## #   i_panas_sf_neg <dbl>, i_panas_sf_pos <dbl>, sns_month <int>,
## #   sns_week <int>, bpq_abandonment <dbl>,
## #   bpq_affective_instability <dbl>, bpq_emptiness <dbl>,
## #   bpq_impulsivity <dbl>, bpq_intense_anger <dbl>,
## #   bpq_quasi_psychotic_states <dbl>, bpq_relationships <dbl>,
…
